{
  "tracks": {
    "href": "https://api.spotify.com/v1/search?query=Muse&type=track&market=US&offset=5&limit=1",
    "items": [
      {
        "album": {
          "album_type": "album",
          "artists": [
            {
              "external_urls": {
                "spotify": "https://open.spotify.com/artist/12Chz98pHFMPJEknJQMWvI"
              },
              "href": "https://api.spotify.com/v1/artists/12Chz98pHFMPJEknJQMWvI",
              "id": "12Chz98pHFMPJEknJQMWvI",
              "name": "Muse",
              "type": "artist",
              "uri": "spotify:artist:12Chz98pHFMPJEknJQMWvI"
            }
          ],
          "external_urls": {
            "spotify": "https://open.spotify.com/album/0lw68yx3MhKflWFqCsGkIs"
          },
          "href": "https://api.spotify.com/v1/albums/0lw68yx3MhKflWFqCsGkIs",
          "id": "0lw68yx3MhKflWFqCsGkIs",
          "images": [
            {
              "height": 640,
              "url": "https://i.scdn.co/image/ab67616d0000b27328933b808bfb4cbbd0385400",
              "width": 640
            },
            {
              "height": 300,
              "url": "https://i.scdn.co/image/ab67616d00001e0228933b808bfb4cbbd0385400",
              "width": 300
            },
            {
              "height": 64,
              "url": "https://i.scdn.co/image/ab67616d0000485128933b808bfb4cbbd0385400",
              "width": 64
            }
          ],
          "name": "Black Holes and Revelations",
          "release_date": "2006-06-19",
          "release_date_precision": "day",
          "total_tracks": 12,
          "type": "album",
          "uri": "spotify:album:0lw68yx3MhKflWFqCsGkIs"
        },
        "artists": [
          {
            "external_urls": {
              "spotify": "https://open.spotify.com/artist/12Chz98pHFMPJEknJQMWvI"
            },
            "href": "https://api.spotify.com/v1/artists/12Chz98pHFMPJEknJQMWvI",
            "id": "12Chz98pHFMPJEknJQMWvI",
            "name": "Muse",
            "type": "artist",
            "uri": "spotify:artist:12Chz98pHFMPJEknJQMWvI"
          }
        ],
        "disc_number": 1,
        "duration_ms": 240213,
        "explicit": false,
        "external_ids": {
          "isrc": "GBAHT0500592"
        },
        "external_urls": {
          "spotify": "https://open.spotify.com/track/3skn2lauGk7Dx6bVIt5DVj"
        },
        "href": "https://api.spotify.com/v1/tracks/3skn2lauGk7Dx6bVIt5DVj",
        "id": "3skn2lauGk7Dx6bVIt5DVj",
        "is_local": false,
        "is_playable": true,
        "name": "Starlight",
        "popularity": 72,
        "preview_url": "https://p.scdn.co/mp3-preview/f7a1b8a270f310e43ced2720c9af5f29f6476b79?cid=774b29d4f13844c495f206cafdad9c86",
        "track_number": 2,
        "type": "track",
        "uri": "spotify:track:3skn2lauGk7Dx6bVIt5DVj"
      }
    ],
    "limit": 1,
    "next": "https://api.spotify.com/v1/search?query=Muse&type=track&market=US&offset=6&limit=1",
    "offset": 5,
    "previous": "https://api.spotify.com/v1/search?query=Muse&type=track&market=US&offset=4&limit=1",
    "total": 54365
  }
}
